# lttt-pcp-mechanism-probe-product-yields
#
# Product yields during low-temperature (200-400°C) thermal treatment
# of pentachlorophenol. Used in the following publications:
#
#   * R. J. Davis, L. E. Katz, H. M. Liljestrand, Evidence for multiple removal
#     pathways in low-temperature (200-400°C) thermal treatment of
#     pentachlorophenol
#
# Includes the following fields:
#
#   id                   integer   primary key
#   product              character product name
#   product_cid          integer   product PubChem CID
#   abbreviation         character product abbreviation
#   associated_mechanism character mechanism associated with product
#   n_chorines           integer   number of chlorine groups in product
#   n_hydroxyls          integer   number of hydroxyl groups in product
#   n_carbonyls          integer   number of carbonyl groups in product
#   ring_oxidation_state character ring oxidation state
#   n_ortho              integer   number of ortho substituents in product
#   n_meta               integer   number of meta substituents in product
#   n_para               integer   number of para substituents in product
#   sweep                character experimental sweep gas
#   flow_rate            numeric   sweep gas flow rate
#   min_hold             numeric   experimental hold time in minutes
#   celsius_hold         numeric   experimental hold temperature in Celsius
#   product_phase        character product phase
#   yield                numeric   mean product yield
#   yield_sd             numeric   product yield standard deviation
#   yield_se             numeric   product yield standard error
#   yield_ci             numeric   product yield confidence invervals (99%)
#
"id","product","product_cid","abbreviation","associated_mechanism","n_chlorines","n_hydroxyls","n_carbonyls","ring_oxidation_state","n_ortho","n_meta","n_para","sweep","flow_rate","min_hold","celsius_hold","product_phase","yield","yield_sd","yield_se","yield_ci"
1,"2-chlorophenol",7245,"2-CP","dechlorination",1,1,0,-2,1,0,0,"nitrogen",21,25,325,"spent soil",0.0185609850464,0.00109952366881781,0.000634810286172325,0.00370786931041843
2,"2,3-dichlorophenol",11334,"2,3-DCP","dechlorination",2,1,0,0,1,1,0,"nitrogen",21,25,325,"spent soil",0.019615547115923,0.00116199427330239,0.00067087770648794,0.00391853584151797
3,"2,3,4-trichlorophenol",27582,"2,3,4-TCP","dechlorination",3,1,0,2,1,1,1,"nitrogen",21,25,325,"spent soil",0.0305823973219624,0.00181165329429593,0.00104595851714003,0.00610934884035807
4,"2,3,4,5-tetrachlorophenol",21013,"2,3,4,5-TeCP","dechlorination",4,1,0,4,1,2,1,"nitrogen",21,25,325,"spent soil",0.636520578937784,0.0377064816593584,0.0217698473362242,0.127155703977626
5,"2,3,4,6-tetrachlorophenol",6028,"2,3,4,6-TeCP","dechlorination",4,1,0,4,2,1,1,"nitrogen",21,25,325,"spent soil",0.0423551751044005,0.00250905420201519,0.00144860311894483,0.00846115944355366
6,"2,3,5-trichlorophenol",13619,"2,3,5-TCP","dechlorination",3,1,0,2,1,2,0,"nitrogen",21,25,325,"spent soil",0.269559066665154,0.0159682567063034,0.00921927730787331,0.0538489626565707
7,"2,3,5,6-tetrachlorophenol",13636,"2,3,5,6-TeCP","dechlorination",4,1,0,4,2,2,0,"nitrogen",21,25,325,"spent soil",0.421320086528304,0.0249583417112922,0.0144097053055412,0.0841657818696499
8,"2,3,6-trichlorophenol",13618,"2,3,6-TCP","dechlorination",3,1,0,2,2,1,0,"nitrogen",21,25,325,"spent soil",0.033028219304288,0.00195653995589062,0.00112960887021371,0.00659794296638862
9,"2,4-dichlorophenol",8449,"2,4-DCP","dechlorination",2,1,0,0,1,0,1,"nitrogen",21,25,325,"spent soil",0.0240202076872626,0.00142291946338199,0.000821522935218751,0.00479844096047868
10,"2,4,5-trichlorophenol",7271,"2,4,5-TCP","dechlorination",3,1,0,2,1,1,1,"nitrogen",21,25,325,"spent soil",0.0451828103814001,0.00267655888487944,0.00154531199268703,0.00902602720452827
11,"2,4,6-trichlorophenol",6914,"2,4,6-TCP","dechlorination",3,1,0,2,2,0,1,"nitrogen",21,25,325,"spent soil",0.0210825714282704,0.00124889849471763,0.00072105188211574,0.00421159865105058
12,"2,5-dichlorophenol",66,"2,5-DCP","dechlorination",2,1,0,0,1,1,0,"nitrogen",21,25,325,"spent soil",0.0298044786564635,0.00176557061156152,0.00101935266785834,0.0059539464875953
13,"2,6-dichlorophenol",6899,"2,6-DCP","dechlorination",2,1,0,0,2,0,0,"nitrogen",21,25,325,"spent soil",0.0219175345172652,0.00129836039971049,0.000749608726278003,0.00437839658797455
14,"3-chlorophenol",7933,"3-CP","dechlorination",1,1,0,-2,0,1,0,"nitrogen",21,25,325,"spent soil",0.747203006043355,0.0442631352001349,0.0255553330229747,0.149266382567229
15,"3,4-dichlorophenol",7258,"3,4-DCP","dechlorination",2,1,0,0,0,1,1,"nitrogen",21,25,325,"spent soil",0.225820878709267,0.0133772749901672,0.00772337331659669,0.0451115231074558
16,"3,4,5-trichlorophenol",11859,"3,4,5-TCP","dechlorination",3,1,0,2,0,2,1,"nitrogen",21,25,325,"spent soil",0.564312013383976,0.0334289593878131,0.019300218701283,0.112730827092213
17,"3,5-dichlorophenol",11571,"3,5-DCP","dechlorination",2,1,0,0,0,2,0,"nitrogen",21,25,325,"spent soil",1.90645012420918,0.112935117923346,0.0652031207340058,0.380845514918923
18,"4-chlorophenol",4684,"4-CP","dechlorination",1,1,0,-2,0,0,1,"nitrogen",21,25,325,"spent soil",0.0408070065577284,0.00241734312331274,0.0013956537029683,0.00815188670683139
19,"catechol",289,"Cat","OH-addition/dechlorination",0,2,0,-2,1,0,0,"nitrogen",21,25,325,"spent soil",1.14483197400468,0.0678180521718431,0.0391547706773297,0.22869946456969
20,"hydroquinone",785,"HQ","OH-addition/dechlorination",0,2,0,-2,0,0,1,"nitrogen",21,25,325,"spent soil",3.19850755338792,0.189474575355291,0.109393197085967,0.638955743280922
21,"pentachlorophenol",992,"PCP","volatilization",5,1,0,6,2,2,1,"nitrogen",21,25,325,"spent soil",1.65609177741342,0.0981042817743007,0.0566405334910474,0.330832219376123
22,"phenol",996,"Ph","dechlorination",0,1,0,-4,0,0,0,"nitrogen",21,25,325,"spent soil",0.349980313345699,0.0207322853384069,0.0119697905210453,0.0699144608899318
23,"quinone",4650,"Q","OH-addition/dechlorination",0,0,2,0,0,0,1,"nitrogen",21,25,325,"spent soil",1.9909743107935,0.117942198285983,0.0680939599292283,0.39773064448724
24,"2-chlorophenol",7245,"2-CP","dechlorination",1,1,0,-2,1,0,0,"nitrogen",21,25,325,"offgas",0.0194821863144969,0.00115409418840421,0.000666316590345354,0.00389189477577796
25,"2,3-dichlorophenol",11334,"2,3-DCP","dechlorination",2,1,0,0,1,1,0,"nitrogen",21,25,325,"offgas",0.0117369446564739,0.000695278209488169,0.000401419061409676,0.0023446523328922
26,"2,3,4-trichlorophenol",27582,"2,3,4-TCP","dechlorination",3,1,0,2,1,1,1,"nitrogen",21,25,325,"offgas",0.0106127386597574,0.000628682007889677,0.000362969726489779,0.00212007325460552
27,"2,3,4,5-tetrachlorophenol",21013,"2,3,4,5-TeCP","dechlorination",4,1,0,4,1,2,1,"nitrogen",21,25,325,"offgas",0.0142865488491355,0.000846312766594947,0.00048861890361221,0.00285397870302026
28,"2,3,4,6-tetrachlorophenol",6028,"2,3,4,6-TeCP","dechlorination",4,1,0,4,2,1,1,"nitrogen",21,25,325,"offgas",0.00481940960497545,0.000285494272914473,0.000164830195319268,0.000962758222365478
29,"2,3,5-trichlorophenol",13619,"2,3,5-TCP","dechlorination",3,1,0,2,1,2,0,"nitrogen",21,25,325,"offgas",0.0200298305178216,0.00118653577284281,0.000685046747853917,0.0040012959271425
30,"2,3,5,6-tetrachlorophenol",13636,"2,3,5,6-TeCP","dechlorination",4,1,0,4,2,2,0,"nitrogen",21,25,325,"offgas",0.00749352402223221,0.000443904620616953,0.000256288452207716,0.0014969576064772
31,"2,3,6-trichlorophenol",13618,"2,3,6-TCP","dechlorination",3,1,0,2,2,1,0,"nitrogen",21,25,325,"offgas",0.0166872238546899,0.000988524992031678,0.000570725170250162,0.00333355396021333
32,"2,4-dichlorophenol",8449,"2,4-DCP","dechlorination",2,1,0,0,1,0,1,"nitrogen",21,25,325,"offgas",0.0126643625187347,0.000750216990371352,0.000433137981341531,0.00252991966761686
33,"2,4,5-trichlorophenol",7271,"2,4,5-TCP","dechlorination",3,1,0,2,1,1,1,"nitrogen",21,25,325,"offgas",0.0150704303346199,0.000892748677441463,0.000515428689239511,0.00301057222948272
34,"2,4,6-trichlorophenol",6914,"2,4,6-TCP","dechlorination",3,1,0,2,2,0,1,"nitrogen",21,25,325,"offgas",0.0130092737040963,0.000770648988511381,0.000444934400967759,0.00259882148483322
35,"2,5-dichlorophenol",66,"2,5-DCP","dechlorination",2,1,0,0,1,1,0,"nitrogen",21,25,325,"offgas",0.0179264488302117,0.0010619347376982,0.000613108306671871,0.00358111001631458
36,"2,6-dichlorophenol",6899,"2,6-DCP","dechlorination",2,1,0,0,2,0,0,"nitrogen",21,25,325,"offgas",0.0190712983968641,0.00112975383203093,0.00065226367904107,0.00380981299531191
37,"3-chlorophenol",7933,"3-CP","dechlorination",1,1,0,-2,0,1,0,"nitrogen",21,25,325,"offgas",0.0157691533056285,0.000934139931335053,0.000539325940817071,0.00315015390869913
38,"3,4-dichlorophenol",7258,"3,4-DCP","dechlorination",2,1,0,0,0,1,1,"nitrogen",21,25,325,"offgas",0.0214109700799179,0.00126835231623581,0.000732283551206028,0.00427720181160389
39,"3,4,5-trichlorophenol",11859,"3,4,5-TCP","dechlorination",3,1,0,2,0,2,1,"nitrogen",21,25,325,"offgas",0.0239712786722607,0.00142002098520575,0.000819849498063458,0.00478866656581907
40,"3,5-dichlorophenol",11571,"3,5-DCP","dechlorination",2,1,0,0,0,2,0,"nitrogen",21,25,325,"offgas",0.023687612876968,0.001403217068001,0.000810147751941853,0.00473199954657672
41,"4-chlorophenol",4684,"4-CP","dechlorination",1,1,0,-2,0,0,1,"nitrogen",21,25,325,"offgas",0.0113528949019557,0.000672527703842012,0.000388284050850667,0.00226793192743464
42,"catechol",289,"Cat","OH-addition/dechlorination",0,2,0,-2,1,0,0,"nitrogen",21,25,325,"offgas",0.194145073624951,0.0115008499334152,0.00664001880496674,0.0387837476547347
43,"hydroquinone",785,"HQ","OH-addition/dechlorination",0,2,0,-2,0,0,1,"nitrogen",21,25,325,"offgas",0.0104151183345091,0.000616975289495861,0.000356210849473783,0.00208059526691944
44,"pentachlorophenol",992,"PCP","volatilization",5,1,0,6,2,2,1,"nitrogen",21,25,325,"offgas",0.0483897942049936,0.00286653558119927,0.00165499508944704,0.0096666762255142
45,"phenol",996,"Ph","dechlorination",0,1,0,-4,0,0,0,"nitrogen",21,25,325,"offgas",0.0735795224607056,0.00435873561040063,0.00251651717799121,0.0146987486130328
46,"quinone",4650,"Q","OH-addition/dechlorination",0,0,2,0,0,0,1,"nitrogen",21,25,325,"offgas",0.0751094276427434,0.00444936479600109,0.00256884196269407,0.0150043729351335
47,"2-chlorophenol",7245,"2-CP","dechlorination",1,1,0,-2,1,0,0,"nitrogen",21,25,375,"spent soil",0.0196394620134639,0.00116341095435773,0.000671695627676592,0.0039233132450034
48,"2,3-dichlorophenol",11334,"2,3-DCP","dechlorination",2,1,0,0,1,1,0,"nitrogen",21,25,375,"spent soil",0.0220646089793861,0.00130707286037873,0.000754638867790114,0.00440777718836192
49,"2,3,4-trichlorophenol",27582,"2,3,4-TCP","dechlorination",3,1,0,2,1,1,1,"nitrogen",21,25,375,"spent soil",0.0250492236371446,0.00148387675577019,0.000856716644388147,0.00500400422401025
50,"2,3,4,5-tetrachlorophenol",21013,"2,3,4,5-TeCP","dechlorination",4,1,0,4,1,2,1,"nitrogen",21,25,375,"spent soil",0.137204647993325,0.00812778834546482,0.00469258078917042,0.0274089388181414
51,"2,3,4,6-tetrachlorophenol",6028,"2,3,4,6-TeCP","dechlorination",4,1,0,4,2,1,1,"nitrogen",21,25,375,"spent soil",0.0385732056348532,0.00228501625703984,0.00131925475110462,0.00770564735763696
52,"2,3,5-trichlorophenol",13619,"2,3,5-TCP","dechlorination",3,1,0,2,1,2,0,"nitrogen",21,25,375,"spent soil",0.0772454100216479,0.00457589704501223,0.00264189539072183,0.0154310713830087
53,"2,3,5,6-tetrachlorophenol",13636,"2,3,5,6-TeCP","dechlorination",4,1,0,4,2,2,0,"nitrogen",21,25,375,"spent soil",0.0764263083659372,0.00452737474647202,0.00261388102859794,0.0152674420344731
54,"2,3,6-trichlorophenol",13618,"2,3,6-TCP","dechlorination",3,1,0,2,2,1,0,"nitrogen",21,25,375,"spent soil",0.0309049678769119,0.00183076186849843,0.00105699085759967,0.00617378774045695
55,"2,4-dichlorophenol",8449,"2,4-DCP","dechlorination",2,1,0,0,1,0,1,"nitrogen",21,25,375,"spent soil",0.0266512191903353,0.00157877646199109,0.000911507015320803,0.00532402981167454
56,"2,4,5-trichlorophenol",7271,"2,4,5-TCP","dechlorination",3,1,0,2,1,1,1,"nitrogen",21,25,375,"spent soil",0.0397398660282564,0.00235412739057141,0.00135915608265308,0.00793870741654906
57,"2,4,6-trichlorophenol",6914,"2,4,6-TCP","dechlorination",3,1,0,2,2,0,1,"nitrogen",21,25,375,"spent soil",0.0237138866822474,0.00140477348705432,0.000811046350901262,0.00473724818160445
58,"2,5-dichlorophenol",66,"2,5-DCP","dechlorination",2,1,0,0,1,1,0,"nitrogen",21,25,375,"spent soil",0.0312209019501836,0.0018494773079258,0.00106779622159106,0.00623690089158935
59,"2,6-dichlorophenol",6899,"2,6-DCP","dechlorination",2,1,0,0,2,0,0,"nitrogen",21,25,375,"spent soil",0.0240408064844985,0.00142413970385163,0.000822227441382373,0.00480255591708854
60,"3-chlorophenol",7933,"3-CP","dechlorination",1,1,0,-2,0,1,0,"nitrogen",21,25,375,"spent soil",0.1967030869925,0.011652382636865,0.0067275062520945,0.0392947538991481
61,"3,4-dichlorophenol",7258,"3,4-DCP","dechlorination",2,1,0,0,0,1,1,"nitrogen",21,25,375,"spent soil",0.0722904794767239,0.00428237472397848,0.00247243019965982,0.014441240570859
62,"3,4,5-trichlorophenol",11859,"3,4,5-TCP","dechlorination",3,1,0,2,0,2,1,"nitrogen",21,25,375,"spent soil",0.125604336111451,0.00744060404743842,0.00429583474972199,0.0250915811827272
63,"3,5-dichlorophenol",11571,"3,5-DCP","dechlorination",2,1,0,0,0,2,0,"nitrogen",21,25,375,"spent soil",0.268157682968201,0.0158852409320844,0.00917134812828097,0.0535690126652819
64,"4-chlorophenol",4684,"4-CP","dechlorination",1,1,0,-2,0,0,1,"nitrogen",21,25,375,"spent soil",0.0260087708909595,0.00154071883146181,0.000889534432090003,0.00519568994572287
65,"catechol",289,"Cat","OH-addition/dechlorination",0,2,0,-2,1,0,0,"nitrogen",21,25,375,"spent soil",1.29287621218217,0.0765879608540241,0.0442180798157554,0.258273794054378
66,"hydroquinone",785,"HQ","OH-addition/dechlorination",0,2,0,-2,0,0,1,"nitrogen",21,25,375,"spent soil",2.93898360929309,0.174100783584872,0.100517134268851,0.587111465338648
67,"pentachlorophenol",992,"PCP","volatilization",5,1,0,6,2,2,1,"nitrogen",21,25,375,"spent soil",0.300247048184029,0.0177861646429725,0.0102688469444712,0.0599794037181885
68,"phenol",996,"Ph","dechlorination",0,1,0,-4,0,0,0,"nitrogen",21,25,375,"spent soil",0.975202221285846,0.0577694514330454,0.0333532083358058,0.194813065078084
69,"quinone",4650,"Q","OH-addition/dechlorination",0,0,2,0,0,0,1,"nitrogen",21,25,375,"spent soil",2.57696236241418,0.152655212212275,0.0881355278639562,0.514791625218845
70,"2-chlorophenol",7245,"2-CP","dechlorination",1,1,0,-2,1,0,0,"nitrogen",21,25,375,"offgas",0.0217806200654534,0.00129024980213208,0.000744926070582818,0.00435104562073027
71,"2,3-dichlorophenol",11334,"2,3-DCP","dechlorination",2,1,0,0,1,1,0,"nitrogen",21,25,375,"offgas",0.0138045142423455,0.000817757791843883,0.00047213268125298,0.0027576841733599
72,"2,3,4-trichlorophenol",27582,"2,3,4-TCP","dechlorination",3,1,0,2,1,1,1,"nitrogen",21,25,375,"offgas",0.011297940500535,0.000669272291216186,0.000386404537494823,0.00225695386037672
73,"2,3,4,5-tetrachlorophenol",21013,"2,3,4,5-TeCP","dechlorination",4,1,0,4,1,2,1,"nitrogen",21,25,375,"offgas",0.0122357444887367,0.000724826329924896,0.000418478676697867,0.00244429599864947
74,"2,3,4,6-tetrachlorophenol",6028,"2,3,4,6-TeCP","dechlorination",4,1,0,4,2,1,1,"nitrogen",21,25,375,"offgas",0.00589252729537952,0.000349064083303132,0.000201532242459493,0.00117713155119309
75,"2,3,5-trichlorophenol",13619,"2,3,5-TCP","dechlorination",3,1,0,2,1,2,0,"nitrogen",21,25,375,"offgas",0.0242241402723107,0.00143500011015494,0.0008284976998851,0.00483917992835155
76,"2,3,5,6-tetrachlorophenol",13636,"2,3,5,6-TeCP","dechlorination",4,1,0,4,2,2,0,"nitrogen",21,25,375,"offgas",0.00788936113971888,0.000467353391174398,0.000269826606201223,0.00157603273617448
77,"2,3,6-trichlorophenol",13618,"2,3,6-TCP","dechlorination",3,1,0,2,2,1,0,"nitrogen",21,25,375,"offgas",0.0180129814653041,0.00106706079540319,0.000616067837467727,0.00359839636729254
78,"2,4-dichlorophenol",8449,"2,4-DCP","dechlorination",2,1,0,0,1,0,1,"nitrogen",21,25,375,"offgas",0.01318651424915,0.000781148440661873,0.000450996262493189,0.00263422826825141
79,"2,4,5-trichlorophenol",7271,"2,4,5-TCP","dechlorination",3,1,0,2,1,1,1,"nitrogen",21,25,375,"offgas",0.014800065669206,0.000876732698327676,0.000506181859386831,0.00295656233491068
80,"2,4,6-trichlorophenol",6914,"2,4,6-TCP","dechlorination",3,1,0,2,2,0,1,"nitrogen",21,25,375,"offgas",0.0124815982202035,0.000739390319720653,0.000426887200126922,0.00249340942142735
81,"2,5-dichlorophenol",66,"2,5-DCP","dechlorination",2,1,0,0,1,1,0,"nitrogen",21,25,375,"offgas",0.0186739329614676,0.0011062145263154,0.000638673254549672,0.00373043255837688
82,"2,6-dichlorophenol",6899,"2,6-DCP","dechlorination",2,1,0,0,2,0,0,"nitrogen",21,25,375,"offgas",0.0182398358641616,0.0010804992945074,0.000623826558543048,0.00364371435345301
83,"3-chlorophenol",7933,"3-CP","dechlorination",1,1,0,-2,0,1,0,"nitrogen",21,25,375,"offgas",0.037995234666132,0.00225077816254164,0.00129948737802955,0.00759018792421376
84,"3,4-dichlorophenol",7258,"3,4-DCP","dechlorination",2,1,0,0,0,1,1,"nitrogen",21,25,375,"offgas",0.0223057601762108,0.00132135827939123,0.000762886558302468,0.00445595120065932
85,"3,4,5-trichlorophenol",11859,"3,4,5-TCP","dechlorination",3,1,0,2,0,2,1,"nitrogen",21,25,375,"offgas",0.0250321055098377,0.00148286270473288,0.000856131181748783,0.00500058458982948
86,"3,5-dichlorophenol",11571,"3,5-DCP","dechlorination",2,1,0,0,0,2,0,"nitrogen",21,25,375,"offgas",0.0384957969027055,0.00228043068504801,0.00131660726988075,0.00769018365990911
87,"4-chlorophenol",4684,"4-CP","dechlorination",1,1,0,-2,0,0,1,"nitrogen",21,25,375,"offgas",0.0105342823704527,0.000624034380253402,0.000360286417422883,0.00210440028969579
88,"catechol",289,"Cat","OH-addition/dechlorination",0,2,0,-2,1,0,0,"nitrogen",21,25,375,"offgas",0.207868177642819,0.012313785111132,0.00710936714865524,0.0415251687648929
89,"hydroquinone",785,"HQ","OH-addition/dechlorination",0,2,0,-2,0,0,1,"nitrogen",21,25,375,"offgas",0.01093933305851,0.000648028948293655,0.000374139687740012,0.00218531598526137
90,"pentachlorophenol",992,"PCP","volatilization",5,1,0,6,2,2,1,"nitrogen",21,25,375,"offgas",0.0412361354669498,0.00244276404744384,0.00141033048035844,0.00823761243252634
91,"phenol",996,"Ph","dechlorination",0,1,0,-4,0,0,0,"nitrogen",21,25,375,"offgas",0.268112938597329,0.0158825903456689,0.0091698178115005,0.053560074223752
92,"quinone",4650,"Q","OH-addition/dechlorination",0,0,2,0,0,0,1,"nitrogen",21,25,375,"offgas",0.0842003159793414,0.00498789477550818,0.00287976239132918,0.0168204309613346
93,"2-chlorophenol",7245,"2-CP","dechlorination",1,1,0,-2,1,0,0,"nitrogen",21,25,225,"spent soil",0.014072144599795,0.000833611794838565,0.000481285994149693,0.00281114784387321
94,"2,3-dichlorophenol",11334,"2,3-DCP","dechlorination",2,1,0,0,1,1,0,"nitrogen",21,25,225,"spent soil",0.00825446339137965,0.000488981476442294,0.000282313587052699,0.00164896805888033
95,"2,3,4-trichlorophenol",27582,"2,3,4-TCP","dechlorination",3,1,0,2,1,1,1,"nitrogen",21,25,225,"spent soil",0.00957614621590862,0.000567275895871367,0.00032751689118612,0.00191299645882393
96,"2,3,4,5-tetrachlorophenol",21013,"2,3,4,5-TeCP","dechlorination",4,1,0,4,1,2,1,"nitrogen",21,25,225,"spent soil",0.0252695565801,0.00149692893404597,0.00086425232302918,0.00504801943953981
97,"2,3,4,6-tetrachlorophenol",6028,"2,3,4,6-TeCP","dechlorination",4,1,0,4,2,1,1,"nitrogen",21,25,225,"spent soil",0.0272235096383174,0.00161267805134218,0.000931080107058608,0.00543835446542615
98,"2,3,5-trichlorophenol",13619,"2,3,5-TCP","dechlorination",3,1,0,2,1,2,0,"nitrogen",21,25,225,"spent soil",0.0182147690020087,0.00107901437287359,0.000622969238638045,0.00363870682563846
99,"2,3,5,6-tetrachlorophenol",13636,"2,3,5,6-TeCP","dechlorination",4,1,0,4,2,2,0,"nitrogen",21,25,225,"spent soil",NaN,NaN,NaN,NaN
100,"2,3,6-trichlorophenol",13618,"2,3,6-TCP","dechlorination",3,1,0,2,2,1,0,"nitrogen",21,25,225,"spent soil",0.011008873562647,0.00065214841878776,0.000376518065138702,0.00219920787195143
101,"2,4-dichlorophenol",8449,"2,4-DCP","dechlorination",2,1,0,0,1,0,1,"nitrogen",21,25,225,"spent soil",0.00954974362724418,0.000565711847892123,0.000326613887664278,0.00190772209714648
102,"2,4,5-trichlorophenol",7271,"2,4,5-TCP","dechlorination",3,1,0,2,1,1,1,"nitrogen",21,25,225,"spent soil",0.00910756239316082,0.000539517724489387,0.000311490703466522,0.001819388949773
103,"2,4,6-trichlorophenol",6914,"2,4,6-TCP","dechlorination",3,1,0,2,2,0,1,"nitrogen",21,25,225,"spent soil",0.00940813564502519,0.000557323212927217,0.000321770707009156,0.00187943351816926
104,"2,5-dichlorophenol",66,"2,5-DCP","dechlorination",2,1,0,0,1,1,0,"nitrogen",21,25,225,"spent soil",0.0109425069504837,0.000648216964680643,0.000374248239051651,0.0021859500236281
105,"2,6-dichlorophenol",6899,"2,6-DCP","dechlorination",2,1,0,0,2,0,0,"nitrogen",21,25,225,"spent soil",0.0102125472989577,0.00060497529878153,0.000349282651604591,0.00204012829148561
106,"3-chlorophenol",7933,"3-CP","dechlorination",1,1,0,-2,0,1,0,"nitrogen",21,25,225,"spent soil",0.0169397905230858,0.00100348664569184,0.000579363285018378,0.00338400840518155
107,"3,4-dichlorophenol",7258,"3,4-DCP","dechlorination",2,1,0,0,0,1,1,"nitrogen",21,25,225,"spent soil",0.027357666437938,0.00162062528992607,0.00093566844739433,0.00546515454520929
108,"3,4,5-trichlorophenol",11859,"3,4,5-TCP","dechlorination",3,1,0,2,0,2,1,"nitrogen",21,25,225,"spent soil",0.03562084498803,0.0021101230387137,0.00121828010442459,0.00711586360379649
109,"3,5-dichlorophenol",11571,"3,5-DCP","dechlorination",2,1,0,0,0,2,0,"nitrogen",21,25,225,"spent soil",0.0229991776376028,0.00136243524320894,0.000786602354420116,0.00459447301499063
110,"4-chlorophenol",4684,"4-CP","dechlorination",1,1,0,-2,0,0,1,"nitrogen",21,25,225,"spent soil",0.0130440628864625,0.000772709845159602,0.00044612423710837,0.00260577120982397
111,"catechol",289,"Cat","OH-addition/dechlorination",0,2,0,-2,1,0,0,"nitrogen",21,25,225,"spent soil",1.66418815318948,0.0985838983881371,0.0569174402721537,0.332449606771815
112,"hydroquinone",785,"HQ","OH-addition/dechlorination",0,2,0,-2,0,0,1,"nitrogen",21,25,225,"spent soil",2.35196835469649,0.13932691976393,0.0804404346310661,0.469845283515591
113,"pentachlorophenol",992,"PCP","volatilization",5,1,0,6,2,2,1,"nitrogen",21,25,225,"spent soil",6.9410294751075,0.411175709412199,0.237392406513368,1.38658751726394
114,"phenol",996,"Ph","dechlorination",0,1,0,-4,0,0,0,"nitrogen",21,25,225,"spent soil",0.0938766919555148,0.00556110812531615,0.00321070727314389,0.0187534500025348
115,"quinone",4650,"Q","OH-addition/dechlorination",0,0,2,0,0,0,1,"nitrogen",21,25,225,"spent soil",0.910232747463997,0.0539207616119404,0.0311311662315634,0.181834318664796
116,"2-chlorophenol",7245,"2-CP","dechlorination",1,1,0,-2,1,0,0,"nitrogen",21,25,225,"offgas",0.0144647406571448,0.000856868570072289,0.000494713299591366,0.00288957551723212
117,"2,3-dichlorophenol",11334,"2,3-DCP","dechlorination",2,1,0,0,1,1,0,"nitrogen",21,25,225,"offgas",0.00789453635271578,0.000467659962682701,0.000270003605344068,0.00157706657211574
118,"2,3,4-trichlorophenol",27582,"2,3,4-TCP","dechlorination",3,1,0,2,1,1,1,"nitrogen",21,25,225,"offgas",0.0102858919104237,0.000609320118632714,0.000351791134515252,0.00205478011267179
119,"2,3,4,5-tetrachlorophenol",21013,"2,3,4,5-TeCP","dechlorination",4,1,0,4,1,2,1,"nitrogen",21,25,225,"offgas",0.00857574337228338,0.000508013599060674,0.000293301788169671,0.00171314914508167
120,"2,3,4,6-tetrachlorophenol",6028,"2,3,4,6-TeCP","dechlorination",4,1,0,4,2,1,1,"nitrogen",21,25,225,"offgas",0.00685738592886119,0.000406220796803208,0.000234531686384757,0.00136987831043219
121,"2,3,5-trichlorophenol",13619,"2,3,5-TCP","dechlorination",3,1,0,2,1,2,0,"nitrogen",21,25,225,"offgas",0.0123965844052617,0.000734354234541371,0.000423979614993002,0.00247642648034979
122,"2,3,5,6-tetrachlorophenol",13636,"2,3,5,6-TeCP","dechlorination",4,1,0,4,2,2,0,"nitrogen",21,25,225,"offgas",0.0049079014109336,0.0002907363888315,0.000167856732355086,0.000980435950714242
123,"2,3,6-trichlorophenol",13618,"2,3,6-TCP","dechlorination",3,1,0,2,2,1,0,"nitrogen",21,25,225,"offgas",0.0162927197975909,0.000965155189882673,0.000557232608688526,0.00325474513177581
124,"2,4-dichlorophenol",8449,"2,4-DCP","dechlorination",2,1,0,0,1,0,1,"nitrogen",21,25,225,"offgas",0.00593313416701334,0.000351469570747167,0.000202921051282839,0.00118524345757881
125,"2,4,5-trichlorophenol",7271,"2,4,5-TCP","dechlorination",3,1,0,2,1,1,1,"nitrogen",21,25,225,"offgas",0.00902228771959935,0.000534466186454247,0.000308574196622112,0.00180235389779359
126,"2,4,6-trichlorophenol",6914,"2,4,6-TCP","dechlorination",3,1,0,2,2,0,1,"nitrogen",21,25,225,"offgas",0.00762494223002579,0.000451689629312419,0.000260783129073687,0.0015232106064279
127,"2,5-dichlorophenol",66,"2,5-DCP","dechlorination",2,1,0,0,1,1,0,"nitrogen",21,25,225,"offgas",0.0086901961524793,0.000514793602410324,0.000297216224928698,0.00173601301518983
128,"2,6-dichlorophenol",6899,"2,6-DCP","dechlorination",2,1,0,0,2,0,0,"nitrogen",21,25,225,"offgas",0.0135894637369286,0.000805018536890224,0.000464777668976209,0.00271472421367931
129,"3-chlorophenol",7933,"3-CP","dechlorination",1,1,0,-2,0,1,0,"nitrogen",21,25,225,"offgas",0.0131021441065453,0.000776150485623198,0.000448110691806212,0.00261737391156196
130,"3,4-dichlorophenol",7258,"3,4-DCP","dechlorination",2,1,0,0,0,1,1,"nitrogen",21,25,225,"offgas",0.0310005748671954,0.00183642547678529,0.00106026074336867,0.00619288684668689
131,"3,4,5-trichlorophenol",11859,"3,4,5-TCP","dechlorination",3,1,0,2,0,2,1,"nitrogen",21,25,225,"offgas",0.0264042961981068,0.00156414913086336,0.000903061921756681,0.00527470278605429
132,"3,5-dichlorophenol",11571,"3,5-DCP","dechlorination",2,1,0,0,0,2,0,"nitrogen",21,25,225,"offgas",0.0213774726446187,0.00126636798065964,0.000731137894526967,0.0042705101348414
133,"4-chlorophenol",4684,"4-CP","dechlorination",1,1,0,-2,0,0,1,"nitrogen",21,25,225,"offgas",0.0083422753738027,0.000494183320678395,0.000285316873222695,0.00166650998103045
134,"catechol",289,"Cat","OH-addition/dechlorination",0,2,0,-2,1,0,0,"nitrogen",21,25,225,"offgas",0.912928451595754,0.0540804509004985,0.0312233628852992,0.182372830957927
135,"hydroquinone",785,"HQ","OH-addition/dechlorination",0,2,0,-2,0,0,1,"nitrogen",21,25,225,"offgas",0.015800137622468,0.000935975393711756,0.000540385645514349,0.00315634354773103
136,"pentachlorophenol",992,"PCP","volatilization",5,1,0,6,2,2,1,"nitrogen",21,25,225,"offgas",0.107818954174293,0.00638702589143085,0.00368755111773871,0.0215386516537177
137,"phenol",996,"Ph","dechlorination",0,1,0,-4,0,0,0,"nitrogen",21,25,225,"offgas",0.114086119508243,0.00675828294507568,0.0039018964775991,0.0227906234616244
138,"quinone",4650,"Q","OH-addition/dechlorination",0,0,2,0,0,0,1,"nitrogen",21,25,225,"offgas",0.375785802646198,0.022260962086995,0.0128523724533466,0.0750695419149129
139,"2-chlorophenol",7245,"2-CP","dechlorination",1,1,0,-2,1,0,0,"air",21,25,225,"spent soil",0.0123551502297377,0.00073189973891128,0.000422562511280245,0.00246814930608109
140,"2,3-dichlorophenol",11334,"2,3-DCP","dechlorination",2,1,0,0,1,1,0,"air",21,25,225,"spent soil",0.00984343370068324,0.000583109587626077,0.000336658477382967,0.00196639163474683
141,"2,3,4-trichlorophenol",27582,"2,3,4-TCP","dechlorination",3,1,0,2,1,1,1,"air",21,25,225,"spent soil",0.0134626755455316,0.00079750780311079,0.000460441344806842,0.00268939613746843
142,"2,3,4,5-tetrachlorophenol",21013,"2,3,4,5-TeCP","dechlorination",4,1,0,4,1,2,1,"air",21,25,225,"spent soil",0.0312920626662031,0.00185369275723293,0.00107023001238329,0.00625111644288561
143,"2,3,4,6-tetrachlorophenol",6028,"2,3,4,6-TeCP","dechlorination",4,1,0,4,2,1,1,"air",21,25,225,"spent soil",0.0400071654162913,0.00236996178745661,0.0013682980759572,0.00799210497034864
144,"2,3,5-trichlorophenol",13619,"2,3,5-TCP","dechlorination",3,1,0,2,1,2,0,"air",21,25,225,"spent soil",0.0267136121713474,0.00158247252441555,0.000913640937956505,0.00533649386026366
145,"2,3,5,6-tetrachlorophenol",13636,"2,3,5,6-TeCP","dechlorination",4,1,0,4,2,2,0,"air",21,25,225,"spent soil",NaN,NaN,NaN,NaN
146,"2,3,6-trichlorophenol",13618,"2,3,6-TCP","dechlorination",3,1,0,2,2,1,0,"air",21,25,225,"spent soil",0.016124392674382,0.000955183754874805,0.000551475598002526,0.00322111895446372
147,"2,4-dichlorophenol",8449,"2,4-DCP","dechlorination",2,1,0,0,1,0,1,"air",21,25,225,"spent soil",NaN,NaN,NaN,NaN
148,"2,4,5-trichlorophenol",7271,"2,4,5-TCP","dechlorination",3,1,0,2,1,1,1,"air",21,25,225,"spent soil",0.0107799565530323,0.000638587733854432,0.000368688800042049,0.00215347784456003
149,"2,4,6-trichlorophenol",6914,"2,4,6-TCP","dechlorination",3,1,0,2,2,0,1,"air",21,25,225,"spent soil",0.00855237134667285,0.000506629076887807,0.000292502433920467,0.00170848018940572
150,"2,5-dichlorophenol",66,"2,5-DCP","dechlorination",2,1,0,0,1,1,0,"air",21,25,225,"spent soil",0.00747437871402387,0.000442770482559664,0.000255633657295043,0.0014931330087758
151,"2,6-dichlorophenol",6899,"2,6-DCP","dechlorination",2,1,0,0,2,0,0,"air",21,25,225,"spent soil",0.006129763825682,0.000363117603605191,0.000209646046188949,0.00122452354293382
152,"3-chlorophenol",7933,"3-CP","dechlorination",1,1,0,-2,0,1,0,"air",21,25,225,"spent soil",0.0100069086618371,0.000592793588157214,0.000342249537696452,0.00199904851098314
153,"3,4-dichlorophenol",7258,"3,4-DCP","dechlorination",2,1,0,0,0,1,1,"air",21,25,225,"spent soil",0.0370408482154492,0.0021942418047405,0.00126684609663406,0.00739953315982922
154,"3,4,5-trichlorophenol",11859,"3,4,5-TCP","dechlorination",3,1,0,2,0,2,1,"air",21,25,225,"spent soil",0.0474595063462721,0.00281142678622309,0.00162317801183282,0.00948083556066882
155,"3,5-dichlorophenol",11571,"3,5-DCP","dechlorination",2,1,0,0,0,2,0,"air",21,25,225,"spent soil",0.0211039357504719,0.00125016408368664,0.000721782570247685,0.00421586653416297
156,"4-chlorophenol",4684,"4-CP","dechlorination",1,1,0,-2,0,0,1,"air",21,25,225,"spent soil",0.010980965518579,0.000650495189989479,0.000375563573046983,0.00219363277020684
157,"catechol",289,"Cat","OH-addition/dechlorination",0,2,0,-2,1,0,0,"air",21,25,225,"spent soil",1.83429557395074,0.108660795433255,0.0627353394937488,0.36643142849832
158,"hydroquinone",785,"HQ","OH-addition/dechlorination",0,2,0,-2,0,0,1,"air",21,25,225,"spent soil",1.25617008488544,0.0744135473919962,0.042962681618124,0.25094112703441
159,"pentachlorophenol",992,"PCP","volatilization",5,1,0,6,2,2,1,"air",21,25,225,"spent soil",6.68762525397963,0.396164440440649,0.228725646331766,1.33596575703399
160,"phenol",996,"Ph","dechlorination",0,1,0,-4,0,0,0,"air",21,25,225,"spent soil",0.166931074579855,0.00988873527471217,0.00570926397280002,0.0333472930904529
161,"quinone",4650,"Q","OH-addition/dechlorination",0,0,2,0,0,0,1,"air",21,25,225,"spent soil",0.810009294696433,0.0479836813215841,0.0277033913277258,0.1618129963173
162,"2-chlorophenol",7245,"2-CP","dechlorination",1,1,0,-2,1,0,0,"air",21,25,225,"offgas",0.0265252809712432,0.00157131607923908,0.000907199761330673,0.0052988715317442
163,"2,3-dichlorophenol",11334,"2,3-DCP","dechlorination",2,1,0,0,1,1,0,"air",21,25,225,"offgas",0.0125679360490181,0.000744504837407011,0.000429840068289916,0.00251065685657099
164,"2,3,4-trichlorophenol",27582,"2,3,4-TCP","dechlorination",3,1,0,2,1,1,1,"air",21,25,225,"offgas",0.0176810057359625,0.00104739507340774,0.000604713827579849,0.00353207862523563
165,"2,3,4,5-tetrachlorophenol",21013,"2,3,4,5-TeCP","dechlorination",4,1,0,4,1,2,1,"air",21,25,225,"offgas",0.00770100513093175,0.000456195476370428,0.000263384581085556,0.00153840545170284
166,"2,3,4,6-tetrachlorophenol",6028,"2,3,4,6-TeCP","dechlorination",4,1,0,4,2,1,1,"air",21,25,225,"offgas",0.00776778843101152,0.00046015161441676,0.000265668658451557,0.00155174654045407
167,"2,3,5-trichlorophenol",13619,"2,3,5-TCP","dechlorination",3,1,0,2,1,2,0,"air",21,25,225,"offgas",0.02883210895797,0.0017079689543401,0.000986096335555778,0.00575969926664169
168,"2,3,5,6-tetrachlorophenol",13636,"2,3,5,6-TeCP","dechlorination",4,1,0,4,2,2,0,"air",21,25,225,"offgas",NaN,NaN,NaN,NaN
169,"2,3,6-trichlorophenol",13618,"2,3,6-TCP","dechlorination",3,1,0,2,2,1,0,"air",21,25,225,"offgas",0.0195592908119948,0.00115866173801213,0.000668953666341023,0.00390729769751154
170,"2,4-dichlorophenol",8449,"2,4-DCP","dechlorination",2,1,0,0,1,0,1,"air",21,25,225,"offgas",0.0124666092334532,0.000738502395633525,0.000426374556916199,0.00249041511892526
171,"2,4,5-trichlorophenol",7271,"2,4,5-TCP","dechlorination",3,1,0,2,1,1,1,"air",21,25,225,"offgas",0.0175087599473088,0.00103719150279953,0.0005988227933425,0.00349766962851474
172,"2,4,6-trichlorophenol",6914,"2,4,6-TCP","dechlorination",3,1,0,2,2,0,1,"air",21,25,225,"offgas",0.0134599232240551,0.000797344759899447,0.000460347211764883,0.0026888463149073
173,"2,5-dichlorophenol",66,"2,5-DCP","dechlorination",2,1,0,0,1,1,0,"air",21,25,225,"offgas",0.0171583929729701,0.0010164363122698,0.000586839778503081,0.0034276779255805
174,"2,6-dichlorophenol",6899,"2,6-DCP","dechlorination",2,1,0,0,2,0,0,"air",21,25,225,"offgas",0.0199624085537781,0.00118254180134406,0.000682740827333979,0.00398782725451009
175,"3-chlorophenol",7933,"3-CP","dechlorination",1,1,0,-2,0,1,0,"air",21,25,225,"offgas",0.0195373674416185,0.00115736303190527,0.000668203858020631,0.00390291813511245
176,"3,4-dichlorophenol",7258,"3,4-DCP","dechlorination",2,1,0,0,0,1,1,"air",21,25,225,"offgas",0.0296273566551681,0.00175507818175752,0.00101329486068654,0.00591856338528898
177,"3,4,5-trichlorophenol",11859,"3,4,5-TCP","dechlorination",3,1,0,2,0,2,1,"air",21,25,225,"offgas",0.0327050369547684,0.00193739513993647,0.001118555605569,0.00653338185002238
178,"3,5-dichlorophenol",11571,"3,5-DCP","dechlorination",2,1,0,0,0,2,0,"air",21,25,225,"offgas",0.0315452323757518,0.00186869013410601,0.0010788887519581,0.00630169135547869
179,"4-chlorophenol",4684,"4-CP","dechlorination",1,1,0,-2,0,0,1,"air",21,25,225,"offgas",0.0142815432958988,0.000846016245464984,0.000488447707058005,0.00285297875947301
180,"catechol",289,"Cat","OH-addition/dechlorination",0,2,0,-2,1,0,0,"air",21,25,225,"offgas",1.63199751424329,0.0966769753801593,0.0558164777601738,0.326018984585924
181,"hydroquinone",785,"HQ","OH-addition/dechlorination",0,2,0,-2,0,0,1,"air",21,25,225,"offgas",0.0537422849148051,0.00318360874341847,0.0018380573650071,0.0107359263750939
182,"pentachlorophenol",992,"PCP","volatilization",5,1,0,6,2,2,1,"air",21,25,225,"offgas",0.135157619105439,0.00800652556187021,0.00462256968841938,0.02700001032798
183,"phenol",996,"Ph","dechlorination",0,1,0,-4,0,0,0,"air",21,25,225,"offgas",0.159009939766153,0.00941949966088086,0.00543835066484115,0.0317649130278653
184,"quinone",4650,"Q","OH-addition/dechlorination",0,0,2,0,0,0,1,"air",21,25,225,"offgas",0.417252190540011,0.0247173659273974,0.0142705778718414,0.083353151146913
185,"2-chlorophenol",7245,"2-CP","dechlorination",1,1,0,-2,1,0,0,"air",21,25,325,"spent soil",0.0145492836340061,0.000861876763541495,0.000497604781438965,0.00290646440047468
186,"2,3-dichlorophenol",11334,"2,3-DCP","dechlorination",2,1,0,0,1,1,0,"air",21,25,325,"spent soil",0.0100814802377155,0.000597211091457518,0.000344799984416028,0.00201394543897149
187,"2,3,4-trichlorophenol",27582,"2,3,4-TCP","dechlorination",3,1,0,2,1,1,1,"air",21,25,325,"spent soil",0.0146820915607251,0.00086974409700839,0.000502146988533882,0.00293299502018212
188,"2,3,4,5-tetrachlorophenol",21013,"2,3,4,5-TeCP","dechlorination",4,1,0,4,1,2,1,"air",21,25,325,"spent soil",0.0306199940433865,0.00181388046515849,0.00104724437483706,0.00611685941855164
189,"2,3,4,6-tetrachlorophenol",6028,"2,3,4,6-TeCP","dechlorination",4,1,0,4,2,1,1,"air",21,25,325,"spent soil",0.0132060795189459,0.000782307456585521,0.000451665420648702,0.00263813676035164
190,"2,3,5-trichlorophenol",13619,"2,3,5-TCP","dechlorination",3,1,0,2,1,2,0,"air",21,25,325,"spent soil",0.0277598407584301,0.00164444946645907,0.000949423342128878,0.00554549563791872
191,"2,3,5,6-tetrachlorophenol",13636,"2,3,5,6-TeCP","dechlorination",4,1,0,4,2,2,0,"air",21,25,325,"spent soil",NaN,NaN,NaN,NaN
192,"2,3,6-trichlorophenol",13618,"2,3,6-TCP","dechlorination",3,1,0,2,2,1,0,"air",21,25,325,"spent soil",0.0192773693003414,0.00114196114943685,0.00065931157703146,0.00385097912829804
193,"2,4-dichlorophenol",8449,"2,4-DCP","dechlorination",2,1,0,0,1,0,1,"air",21,25,325,"spent soil",0.00993170675663353,0.000588338745135421,0.000339677532878622,0.001984025664098
194,"2,4,5-trichlorophenol",7271,"2,4,5-TCP","dechlorination",3,1,0,2,1,1,1,"air",21,25,325,"spent soil",0.0148823817579076,0.000881608974431861,0.000508997178708225,0.00297300635974488
195,"2,4,6-trichlorophenol",6914,"2,4,6-TCP","dechlorination",3,1,0,2,2,0,1,"air",21,25,325,"spent soil",0.00886837130942793,0.000525348419504923,0.000303310051419512,0.00177160650307193
196,"2,5-dichlorophenol",66,"2,5-DCP","dechlorination",2,1,0,0,1,1,0,"air",21,25,325,"spent soil",0.0090995266949969,0.000539041702322211,0.000311215871940163,0.00181778368375208
197,"2,6-dichlorophenol",6899,"2,6-DCP","dechlorination",2,1,0,0,2,0,0,"air",21,25,325,"spent soil",0.0101173793108726,0.000599337696296979,0.000346027780292551,0.00202111688333713
198,"3-chlorophenol",7933,"3-CP","dechlorination",1,1,0,-2,0,1,0,"air",21,25,325,"spent soil",0.0133366591850784,0.00079004279138699,0.000456131418278602,0.00266422224748537
199,"3,4-dichlorophenol",7258,"3,4-DCP","dechlorination",2,1,0,0,0,1,1,"air",21,25,325,"spent soil",0.038950284712937,0.00230735383073718,0.00133215135529183,0.00778097525309794
200,"3,4,5-trichlorophenol",11859,"3,4,5-TCP","dechlorination",3,1,0,2,0,2,1,"air",21,25,325,"spent soil",0.0474839825642797,0.00281287671902327,0.00162401513092532,0.00948572509736951
201,"3,5-dichlorophenol",11571,"3,5-DCP","dechlorination",2,1,0,0,0,2,0,"air",21,25,325,"spent soil",0.0249790469937895,0.00147971960138564,0.000854316510185163,0.00498998525779943
202,"4-chlorophenol",4684,"4-CP","dechlorination",1,1,0,-2,0,0,1,"air",21,25,325,"spent soil",NaN,NaN,NaN,NaN
203,"catechol",289,"Cat","OH-addition/dechlorination",0,2,0,-2,1,0,0,"air",21,25,325,"spent soil",1.51786268475641,0.0899158069322787,0.0519129153367535,0.303218630485843
204,"hydroquinone",785,"HQ","OH-addition/dechlorination",0,2,0,-2,0,0,1,"air",21,25,325,"spent soil",2.59030177901528,0.153445418348665,0.0885917535895168,0.517456398306612
205,"pentachlorophenol",992,"PCP","volatilization",5,1,0,6,2,2,1,"air",21,25,325,"spent soil",0.661433375929463,0.0391822767144336,0.0226218980085407,0.132132454681924
206,"phenol",996,"Ph","dechlorination",0,1,0,-4,0,0,0,"air",21,25,325,"spent soil",0.079739689125171,0.00472365423053367,0.00272720304155733,0.0159293456349653
207,"quinone",4650,"Q","OH-addition/dechlorination",0,0,2,0,0,0,1,"air",21,25,325,"spent soil",1.09260158207284,0.0647240055995778,0.0373684220559471,0.218265564276627
208,"2-chlorophenol",7245,"2-CP","dechlorination",1,1,0,-2,1,0,0,"air",21,25,325,"offgas",0.022556616226734,0.00133621859872918,0.000771466167672475,0.00450606392090247
209,"2,3-dichlorophenol",11334,"2,3-DCP","dechlorination",2,1,0,0,1,1,0,"air",21,25,325,"offgas",0.0113369335301129,0.000671582177185744,0.000387738150781144,0.00226474337463638
210,"2,3,4-trichlorophenol",27582,"2,3,4-TCP","dechlorination",3,1,0,2,1,1,1,"air",21,25,325,"offgas",0.0113264424850041,0.000670960704113119,0.00038737934313537,0.00226264761171778
211,"2,3,4,5-tetrachlorophenol",21013,"2,3,4,5-TeCP","dechlorination",4,1,0,4,1,2,1,"air",21,25,325,"offgas",0.00339443109120847,0.000201080778720775,0.000116094041723299,0.000678094769106189
212,"2,3,4,6-tetrachlorophenol",6028,"2,3,4,6-TeCP","dechlorination",4,1,0,4,2,1,1,"air",21,25,325,"offgas",NaN,NaN,NaN,NaN
213,"2,3,5-trichlorophenol",13619,"2,3,5-TCP","dechlorination",3,1,0,2,1,2,0,"air",21,25,325,"offgas",0.0190409303463443,0.00112795487630531,0.00065122505146862,0.00380374646585465
214,"2,3,5,6-tetrachlorophenol",13636,"2,3,5,6-TeCP","dechlorination",4,1,0,4,2,2,0,"air",21,25,325,"offgas",NaN,NaN,NaN,NaN
215,"2,3,6-trichlorophenol",13618,"2,3,6-TCP","dechlorination",3,1,0,2,2,1,0,"air",21,25,325,"offgas",0.0155421899816156,0.000920694979675327,0.000531563494357087,0.0031048141629047
216,"2,4-dichlorophenol",8449,"2,4-DCP","dechlorination",2,1,0,0,1,0,1,"air",21,25,325,"offgas",0.00890562846902139,0.000527555475256736,0.000304584295651937,0.00177904924807198
217,"2,4,5-trichlorophenol",7271,"2,4,5-TCP","dechlorination",3,1,0,2,1,1,1,"air",21,25,325,"offgas",0.00828492549943137,0.000490786003988716,0.000283355431517386,0.00165505337791341
218,"2,4,6-trichlorophenol",6914,"2,4,6-TCP","dechlorination",3,1,0,2,2,0,1,"air",21,25,325,"offgas",0.00882586659774704,0.000522830506990444,0.000301856333951481,0.00176311547117919
219,"2,5-dichlorophenol",66,"2,5-DCP","dechlorination",2,1,0,0,1,1,0,"air",21,25,325,"offgas",0.012752848426184,0.000755458756869959,0.000436164316640531,0.00254759621763916
220,"2,6-dichlorophenol",6899,"2,6-DCP","dechlorination",2,1,0,0,2,0,0,"air",21,25,325,"offgas",0.0189461153278723,0.00112233818318753,0.000647982252185114,0.00378480556933002
221,"3-chlorophenol",7933,"3-CP","dechlorination",1,1,0,-2,0,1,0,"air",21,25,325,"offgas",0.0161940367906468,0.000959309363188999,0.000553857519073297,0.00323503153942104
222,"3,4-dichlorophenol",7258,"3,4-DCP","dechlorination",2,1,0,0,0,1,1,"air",21,25,325,"offgas",0.0271213459021389,0.00160662603170301,0.000927585971890794,0.005417945538795
223,"3,4,5-trichlorophenol",11859,"3,4,5-TCP","dechlorination",3,1,0,2,0,2,1,"air",21,25,325,"offgas",0.0282500742829193,0.00167349013224681,0.000966189978338877,0.00564342803945061
224,"3,5-dichlorophenol",11571,"3,5-DCP","dechlorination",2,1,0,0,0,2,0,"air",21,25,325,"offgas",0.0247332861791677,0.00146516111583818,0.000845911164635347,0.00494089039672598
225,"4-chlorophenol",4684,"4-CP","dechlorination",1,1,0,-2,0,0,1,"air",21,25,325,"offgas",0.00566875185694056,0.000335807976989343,0.000193878825910821,0.00113242863922269
226,"catechol",289,"Cat","OH-addition/dechlorination",0,2,0,-2,1,0,0,"air",21,25,325,"offgas",0.487185752762106,0.0288601205665349,0.016662398377934,0.0973235578081606
227,"hydroquinone",785,"HQ","OH-addition/dechlorination",0,2,0,-2,0,0,1,"air",21,25,325,"offgas",0.0154331840798515,0.000914237640868643,0.0005278353480588,0.00308303839848299
228,"pentachlorophenol",992,"PCP","volatilization",5,1,0,6,2,2,1,"air",21,25,325,"offgas",0.0802147059738498,0.00475179348429115,0.00274344924728901,0.0160242382492713
229,"phenol",996,"Ph","dechlorination",0,1,0,-4,0,0,0,"air",21,25,325,"offgas",0.0927754893564826,0.00549587460894982,0.00317304468490961,0.0185334662402885
230,"quinone",4650,"Q","OH-addition/dechlorination",0,0,2,0,0,0,1,"air",21,25,325,"offgas",0.393375947620314,0.0233029747112511,0.0134539787224598,0.0785834695729702
231,"2-chlorophenol",7245,"2-CP","dechlorination",1,1,0,-2,1,0,0,"air",21,25,375,"spent soil",0.0164229967112727,0.000972872590103385,0.000561688251783398,0.0032807701390095
232,"2,3-dichlorophenol",11334,"2,3-DCP","dechlorination",2,1,0,0,1,1,0,"air",21,25,375,"spent soil",0.0067450054401605,0.000399563552754425,0.000230688124741131,0.0013474284154454
233,"2,3,4-trichlorophenol",27582,"2,3,4-TCP","dechlorination",3,1,0,2,1,1,1,"air",21,25,375,"spent soil",0.0105993193446009,0.000627887068688069,0.000362510768127742,0.00211739252043592
234,"2,3,4,5-tetrachlorophenol",21013,"2,3,4,5-TeCP","dechlorination",4,1,0,4,1,2,1,"air",21,25,375,"spent soil",0.0186792638758417,0.0011065303213293,0.000638855578885955,0.00373149749829007
235,"2,3,4,6-tetrachlorophenol",6028,"2,3,4,6-TeCP","dechlorination",4,1,0,4,2,1,1,"air",21,25,375,"spent soil",NaN,NaN,NaN,NaN
236,"2,3,5-trichlorophenol",13619,"2,3,5-TCP","dechlorination",3,1,0,2,1,2,0,"air",21,25,375,"spent soil",0.0203952985810164,0.00120818552821275,0.000697546239944643,0.00407430432686216
237,"2,3,5,6-tetrachlorophenol",13636,"2,3,5,6-TeCP","dechlorination",4,1,0,4,2,2,0,"air",21,25,375,"spent soil",NaN,NaN,NaN,NaN
238,"2,3,6-trichlorophenol",13618,"2,3,6-TCP","dechlorination",3,1,0,2,2,1,0,"air",21,25,375,"spent soil",0.0137896512941179,0.000816877334081331,0.00047162434872676,0.00275471504917507
239,"2,4-dichlorophenol",8449,"2,4-DCP","dechlorination",2,1,0,0,1,0,1,"air",21,25,375,"spent soil",0.00694471575874075,0.000411394079078172,0.000237518482298801,0.0013873239144928
240,"2,4,5-trichlorophenol",7271,"2,4,5-TCP","dechlorination",3,1,0,2,1,1,1,"air",21,25,375,"spent soil",NaN,NaN,NaN,NaN
241,"2,4,6-trichlorophenol",6914,"2,4,6-TCP","dechlorination",3,1,0,2,2,0,1,"air",21,25,375,"spent soil",0.00624188387989636,0.00036975941992311,0.000213480700628007,0.00124692141174653
242,"2,5-dichlorophenol",66,"2,5-DCP","dechlorination",2,1,0,0,1,1,0,"air",21,25,375,"spent soil",0.00670369692644861,0.000397116501133168,0.000229275318828877,0.00133917634423967
243,"2,6-dichlorophenol",6899,"2,6-DCP","dechlorination",2,1,0,0,2,0,0,"air",21,25,375,"spent soil",0.00955052966153589,0.000565758411331836,0.000326640771078731,0.00190787912073224
244,"3-chlorophenol",7933,"3-CP","dechlorination",1,1,0,-2,0,1,0,"air",21,25,375,"spent soil",0.015894955214891,0.00094159223930636,0.00054362853283039,0.00317528495844571
245,"3,4-dichlorophenol",7258,"3,4-DCP","dechlorination",2,1,0,0,0,1,1,"air",21,25,375,"spent soil",0.0232091715821031,0.0013748749554176,0.000793784425612427,0.00463642284148097
246,"3,4,5-trichlorophenol",11859,"3,4,5-TCP","dechlorination",3,1,0,2,0,2,1,"air",21,25,375,"spent soil",0.0351490731723475,0.0020821760156259,0.0012021448831218,0.00702161923947441
247,"3,5-dichlorophenol",11571,"3,5-DCP","dechlorination",2,1,0,0,0,2,0,"air",21,25,375,"spent soil",0.0268474539774001,0.00159040110327407,0.000918218505094764,0.00536323101477745
248,"4-chlorophenol",4684,"4-CP","dechlorination",1,1,0,-2,0,0,1,"air",21,25,375,"spent soil",NaN,NaN,NaN,NaN
249,"catechol",289,"Cat","OH-addition/dechlorination",0,2,0,-2,1,0,0,"air",21,25,375,"spent soil",NaN,NaN,NaN,NaN
250,"hydroquinone",785,"HQ","OH-addition/dechlorination",0,2,0,-2,0,0,1,"air",21,25,375,"spent soil",NaN,NaN,NaN,NaN
251,"pentachlorophenol",992,"PCP","volatilization",5,1,0,6,2,2,1,"air",21,25,375,"spent soil",0.0977061951484108,0.00578796189357666,0.00334168135731578,0.0195184577501081
252,"phenol",996,"Ph","dechlorination",0,1,0,-4,0,0,0,"air",21,25,375,"spent soil",0.0856046466474347,0.00507108512367965,0.00292779236123995,0.0171009696597326
253,"quinone",4650,"Q","OH-addition/dechlorination",0,0,2,0,0,0,1,"air",21,25,375,"spent soil",0.967422956220761,0.0573086199608102,0.0330871471612598,0.19325902588672
254,"2-chlorophenol",7245,"2-CP","dechlorination",1,1,0,-2,1,0,0,"air",21,25,375,"offgas",0.0195613305594695,0.00115878256945622,0.000669023428407794,0.00390770517141681
255,"2,3-dichlorophenol",11334,"2,3-DCP","dechlorination",2,1,0,0,1,1,0,"air",21,25,375,"offgas",0.00522462623768774,0.00030949867125605,0.000178689141163512,0.00104370706817021
256,"2,3,4-trichlorophenol",27582,"2,3,4-TCP","dechlorination",3,1,0,2,1,1,1,"air",21,25,375,"offgas",0.00618402327848945,0.00036633184856416,0.000211501791381251,0.00123536278230403
257,"2,3,4,5-tetrachlorophenol",21013,"2,3,4,5-TeCP","dechlorination",4,1,0,4,1,2,1,"air",21,25,375,"offgas",0.00316042970120182,0.00018721890306033,0.000108090884079268,0.000631349051115905
258,"2,3,4,6-tetrachlorophenol",6028,"2,3,4,6-TeCP","dechlorination",4,1,0,4,2,1,1,"air",21,25,375,"offgas",NaN,NaN,NaN,NaN
259,"2,3,5-trichlorophenol",13619,"2,3,5-TCP","dechlorination",3,1,0,2,1,2,0,"air",21,25,375,"offgas",0.00796149661366087,0.000471626583613395,0.000272293735006177,0.00159044301177965
260,"2,3,5,6-tetrachlorophenol",13636,"2,3,5,6-TeCP","dechlorination",4,1,0,4,2,2,0,"air",21,25,375,"offgas",NaN,NaN,NaN,NaN
261,"2,3,6-trichlorophenol",13618,"2,3,6-TCP","dechlorination",3,1,0,2,2,1,0,"air",21,25,375,"offgas",0.00640822288050762,0.000379613081663711,0.000219169714886447,0.00128015042809185
262,"2,4-dichlorophenol",8449,"2,4-DCP","dechlorination",2,1,0,0,1,0,1,"air",21,25,375,"offgas",0.00630254175651127,0.00037335269748201,0.000215555280393911,0.00125903884401498
263,"2,4,5-trichlorophenol",7271,"2,4,5-TCP","dechlorination",3,1,0,2,1,1,1,"air",21,25,375,"offgas",0.00688978486389264,0.000408140058944875,0.000235639772898893,0.0013763505432686
264,"2,4,6-trichlorophenol",6914,"2,4,6-TCP","dechlorination",3,1,0,2,2,0,1,"air",21,25,375,"offgas",0.00692840451718552,0.000410427826688391,0.000236960616221456,0.00138406546932805
265,"2,5-dichlorophenol",66,"2,5-DCP","dechlorination",2,1,0,0,1,1,0,"air",21,25,375,"offgas",0.00885934250188831,0.000524813567094548,0.000303001254236405,0.0017698028467303
266,"2,6-dichlorophenol",6899,"2,6-DCP","dechlorination",2,1,0,0,2,0,0,"air",21,25,375,"offgas",0.0143642481828989,0.000850915553371119,0.000491276323796455,0.00286950045331429
267,"3-chlorophenol",7933,"3-CP","dechlorination",1,1,0,-2,0,1,0,"air",21,25,375,"offgas",0.0106824607908009,0.000632812237677112,0.00036535431576937,0.00213400142432857
268,"3,4-dichlorophenol",7258,"3,4-DCP","dechlorination",2,1,0,0,0,1,1,"air",21,25,375,"offgas",0.0143010767443019,0.000847173376339187,0.000489115776879714,0.00285688089471418
269,"3,4,5-trichlorophenol",11859,"3,4,5-TCP","dechlorination",3,1,0,2,0,2,1,"air",21,25,375,"offgas",0.0146569624013243,0.000868255484983244,0.000501287537980445,0.00292797504744329
270,"3,5-dichlorophenol",11571,"3,5-DCP","dechlorination",2,1,0,0,0,2,0,"air",21,25,375,"offgas",0.0125565104502333,0.000743828002839075,0.000429449297669922,0.0025083744008187
271,"4-chlorophenol",4684,"4-CP","dechlorination",1,1,0,-2,0,0,1,"air",21,25,375,"offgas",NaN,NaN,NaN,NaN
272,"catechol",289,"Cat","OH-addition/dechlorination",0,2,0,-2,1,0,0,"air",21,25,375,"offgas",0.138619715494414,0.00821161472679818,0.00474097797299843,0.0276916223797273
273,"hydroquinone",785,"HQ","OH-addition/dechlorination",0,2,0,-2,0,0,1,"air",21,25,375,"offgas",0.00887714716467158,0.000525868287417666,0.000303610197298877,0.00177335962793299
274,"pentachlorophenol",992,"PCP","volatilization",5,1,0,6,2,2,1,"air",21,25,375,"offgas",0.00932459607959133,0.000552374459978617,0.000318913543162129,0.00186274508325573
275,"phenol",996,"Ph","dechlorination",0,1,0,-4,0,0,0,"air",21,25,375,"offgas",0.0876854175990163,0.00519434673425328,0.00299895748528539,0.0175166386952979
276,"quinone",4650,"Q","OH-addition/dechlorination",0,0,2,0,0,0,1,"air",21,25,375,"offgas",0.424550648083303,0.0251497151154739,0.0145201947919612,0.0848111409395082
